{
  "BLINK_ORIENTATION" : {
    "type" : 83,
    "version" : 1,
    "contents" : ["DEVICE_ID", "BLINK_INDEX", "ACCELEROMETER_X", "ACCELEROMETER_Y", "ACCELEROMETER_Z", "EULER_YAW", "EULER_ROLL", "EULER_ROLL"],
    "description" : "Blink with orientation data"
  }
}
