{
  "TDOA_RX" : {
    "log_file" : "tdoa_rx.txt",
    "identifier" : 0,
    "contents" : ["DEVICE_ID", "TIMESTAMP"],
    "description" : "Packets received by the anchor in TDOA_Receive mode"
  },
  "TDOA_MASTER" : {
    "log_file" : "tdoa_master.txt",
    "identifier" : 1,
    "contents" : ["DEVICE_ID", "TIMESTAMP", "SYNC_INDEX"],
    "description" : "The sync packet by the anchor in TDOA_Master mode"
  }
}
