{
    "DESC": "please see https://docs.python.org/3.6/library/struct.html#format-characters",

	"DEVICE_ID": "H",
	"TIMESTAMP": "Q",
	"SYNC_INDEX": "B",
	"BLINK_INDEX": "B",
	"ACCELEROMETER_X": "h",
	"ACCELEROMETER_Y": "h",
	"ACCELEROMETER_Z": "h",
	"EULER_YAW": "h",
	"EULER_ROLL": "h",
	"EULER_ROLL": "h"
}
